{
  "project" : {
    "id" : "byki_i_korovy-256366607-RyN",
    "name" : "byki_i_korovy-256366607-RyN",
    "folder" : "/jaicp"
  },
  "settings" : {
    "language" : "ru",
    "spellingCorrection" : false,
    "classificationAlgorithm" : "sts",
    "timezone" : "Europe/Moscow",
    "extendedSettings" : {
      "tokenizerEngine" : "mystem",
      "useShared" : false
    },
    "shared" : false
  },
  "intents" : [ {
    "id" : 863560,
    "path" : "/пока",
    "enabled" : true,
    "shared" : false,
    "phrases" : [ {
      "text" : "пока"
    }, {
      "text" : "до свидания"
    }, {
      "text" : "всего доброго"
    } ],
    "patterns" : [ ],
    "priority" : 0
  }, {
    "id" : 863561,
    "path" : "/приветствие",
    "answer" : "Вы такой вежливый.",
    "enabled" : true,
    "shared" : false,
    "phrases" : [ {
      "text" : "привет"
    }, {
      "text" : "здравствуйте"
    }, {
      "text" : "добрый день"
    } ],
    "patterns" : [ ],
    "priority" : 0
  }, {
    "id" : 876391,
    "path" : "/сдаюсь",
    "enabled" : true,
    "shared" : false,
    "phrases" : [ {
      "text" : "покажи число"
    }, {
      "text" : "сдаюсь"
    } ],
    "patterns" : [ ],
    "priority" : 0
  }, {
    "id" : 865530,
    "path" : "/Частичное совпадение",
    "enabled" : true,
    "shared" : false,
    "phrases" : [ ],
    "patterns" : [ ],
    "slots" : [ ],
    "priority" : 0
  } ],
  "entities" : [ {
    "entity" : {
      "id" : 55078,
      "name" : "usNum",
      "enabled" : true,
      "shared" : false,
      "type" : "annotation",
      "priority" : 1,
      "noSpelling" : true,
      "noMorph" : false,
      "phoneticSearch" : false,
      "fuzzySearch" : false,
      "client" : false
    },
    "records" : [ ]
  } ],
  "enabledSystemEntities" : [ "duckling.number", "duckling.time", "duckling.duration", "duckling.phone-number", "duckling.email", "duckling.url" ],
  "spellerDictionary" : [ ],
  "systemEntities" : [ {
    "name" : "mystem.geo",
    "enabled" : false
  }, {
    "name" : "mystem.persn",
    "enabled" : false
  }, {
    "name" : "mystem.obsc",
    "enabled" : false
  }, {
    "name" : "mystem.patrn",
    "enabled" : false
  }, {
    "name" : "mystem.famn",
    "enabled" : false
  }, {
    "name" : "pymorphy.romn",
    "enabled" : false
  }, {
    "name" : "pymorphy.latn",
    "enabled" : false
  }, {
    "name" : "pymorphy.numb",
    "enabled" : false
  }, {
    "name" : "pymorphy.intg",
    "enabled" : false
  }, {
    "name" : "pymorphy.abbr",
    "enabled" : false
  }, {
    "name" : "pymorphy.name",
    "enabled" : false
  }, {
    "name" : "pymorphy.surn",
    "enabled" : false
  }, {
    "name" : "pymorphy.patr",
    "enabled" : false
  }, {
    "name" : "pymorphy.geox",
    "enabled" : false
  }, {
    "name" : "pymorphy.orgn",
    "enabled" : false
  }, {
    "name" : "duckling.number",
    "version" : "v2",
    "enabled" : true
  }, {
    "name" : "duckling.ordinal",
    "version" : "v2",
    "enabled" : false
  }, {
    "name" : "duckling.amount-of-money",
    "version" : "v2",
    "enabled" : false
  }, {
    "name" : "duckling.distance",
    "version" : "v2",
    "enabled" : false
  }, {
    "name" : "duckling.time",
    "version" : "v2",
    "enabled" : true
  }, {
    "name" : "duckling.date",
    "version" : "v2",
    "enabled" : false
  }, {
    "name" : "duckling.time-of-day",
    "version" : "v2",
    "enabled" : false
  }, {
    "name" : "duckling.duration",
    "version" : "v2",
    "enabled" : true
  }, {
    "name" : "duckling.phone-number",
    "version" : "v2",
    "enabled" : true
  }, {
    "name" : "duckling.email",
    "version" : "v2",
    "enabled" : true
  }, {
    "name" : "duckling.url",
    "version" : "v2",
    "enabled" : true
  }, {
    "name" : "duckling.interval",
    "version" : "v2",
    "enabled" : false
  }, {
    "name" : "mlps-obscene.obscene",
    "enabled" : false
  }, {
    "name" : "zb.datetime",
    "enabled" : false
  }, {
    "name" : "zb.number",
    "enabled" : false
  } ]
}